1645234332364979_1956402481248161
376854829180202_472149419650742
704989366257912_1504575786299262
502780413387424_523081054690693
1645234332364979_1960039614217781
502780413387424_546542919011173
502780413387424_504659406532858
502780413387424_546542919011173
502780413387424_511355375863261
502780413387424_525497637782368
1645234332364979_1913884552166621
502780413387424_515309162134549
1645234332364979_1828168260738251
502780413387424_541321312866667
502780413387424_555047768160688
704989366257912_1549476841809156
502780413387424_546824665649665
704989366257912_1512058172217690
502780413387424_526747987657333
502780413387424_502952960036836
502780413387424_546542919011173
1645234332364979_1843813695840374
502780413387424_555806264751505
376854829180202_629817617217254
1645234332364979_1893276594227417
1645234332364979_1961573080731101
502780413387424_557622974569834
502780413387424_537551513243647
502780413387424_533591913639607
502780413387424_553456731653125
704989366257912_1595282307228609
704989366257912_1487616037995237
502780413387424_515648375433961
502780413387424_542322039433261
502780413387424_546824665649665
502780413387424_526747987657333
704989366257912_1520724881351019
502780413387424_541401322858666
1645234332364979_1993534910868251
502780413387424_558589921139806
704989366257912_1511643118925862
502780413387424_508299509502181
1645234332364979_1839188939636183
502780413387424_503321729999959
1645234332364979_1851552455066498
502780413387424_540905752908223
502780413387424_540082159657249
1645234332364979_1768057353416009
1645234332364979_1992634794291596
502780413387424_557387811260017
376854829180202_379249088940776
502780413387424_518723608459771
1645234332364979_1890855337802876
502780413387424_546454125686719
704989366257912_1536391856450988
704989366257912_1523831747706999
1645234332364979_1990665461155196
502780413387424_527614620904003
1645234332364979_1955737281314681
704989366257912_1481658161924358
502780413387424_523061004692698
1645234332364979_1896586420563101
502780413387424_517988741866591
502780413387424_523529844645814
502780413387424_504656863199779
704989366257912_1517292761694231
1645234332364979_1687997218088690
1645234332364979_1955738407981235
502780413387424_557829004549231
502780413387424_550356225296509
1645234332364979_1834168476804896
704989366257912_1509280345828806
376854829180202_656124234586592
704989366257912_1434967809926727
502780413387424_537792859886179
1645234332364979_1984907938397615
704989366257912_1509960582427449
704989366257912_1587932241296949
704989366257912_1497646050325569
704989366257912_1525731444183696
704989366257912_1520830204673820
502780413387424_541321312866667
1645234332364979_1863939960494414
502780413387424_524525187879613
704989366257912_1544099182346922
502780413387424_559190791079719
502780413387424_536486680016797
704989366257912_1532645906825583
502780413387424_546542922344506
704989366257912_1502521383171369
502780413387424_557310227934442
502780413387424_560538737611591
704989366257912_1513559658734208
1645234332364979_1679495552272190
502780413387424_535087083490090
502780413387424_558150297850435
502780413387424_559190791079719
376854829180202_379076485624703
502780413387424_527614620904003
502780413387424_536486680016797
502780413387424_502797836719015
1645234332364979_1892137617674648
1645234332364979_1768181960070215
502780413387424_532029997129132
704989366257912_1533568040066703
502780413387424_560538737611591
502780413387424_537792859886179
1645234332364979_1984858835069192
502780413387424_531641210501344
704989366257912_1487536238003217
704989366257912_1511643118925862
1645234332364979_1856438471244563
502780413387424_522800874718711
502780413387424_546454125686719
502780413387424_547032475628884
1645234332364979_1836966039858473
502780413387424_522004634798335
704989366257912_1553669358056571
376854829180202_506542749544742
502780413387424_521649331500532
502780413387424_528953887436743
502780413387424_503016296697169
1645234332364979_1854138294807914
502780413387424_530647133934085
502780413387424_560076514324480
1645234332364979_1837437909811286
1645234332364979_1837887306433013
502780413387424_519842525014546
502780413387424_547937472205051
1645234332364979_1912504732304603
502780413387424_560609394271192
704989366257912_1497643893659118
1645234332364979_1713102098911535
502780413387424_557375674594564
502780413387424_543932189272246
376854829180202_568727899992893
502780413387424_537792859886179
502780413387424_535087083490090
502780413387424_546542919011173
1645234332364979_1668739546681124
704989366257912_1536954343061406
704989366257912_1557697984320375
502780413387424_517595321905933
376854829180202_568714783327538
502780413387424_548289985503133
1645234332364979_1781095402112204
502780413387424_504660393199426
502780413387424_511360809196051
1645234332364979_1941631056058637
1645234332364979_1980515528836856
502780413387424_503016296697169
502780413387424_560143594317772
502780413387424_550042631994535
704989366257912_1468915329865308
502780413387424_526473267684805
502780413387424_525622731103192
502780413387424_544003425931789
502780413387424_558811391117659
502780413387424_532415993757199
502780413387424_515927285406070
376854829180202_476969002502117
704989366257912_1511226825634158
502780413387424_511360809196051
1645234332364979_1955817784639964
1645234332364979_1910343812520695
502780413387424_543932189272246
502780413387424_504651593200306
502780413387424_555553041443494
704989366257912_1549476841809156
704989366257912_1532645906825583
502780413387424_560538737611591
704989366257912_1468915329865308
704989366257912_1499256170164557
502780413387424_535574313441367
1645234332364979_1663128043908941
1645234332364979_1996224803932595
704989366257912_1558986184191555
502780413387424_561737150825083
704989366257912_1504582762965231
704989366257912_1587932241296949
502780413387424_544003425931789
1645234332364979_1917603148461428
502780413387424_502798026718996
502780413387424_553072895024842
376854829180202_379072708958414
502780413387424_509987592666706
502780413387424_528506124148186
704989366257912_1534735299949977
704989366257912_1504582762965231
502780413387424_531643340501131
502780413387424_502837183381747
704989366257912_1537493206340853
502780413387424_526473267684805
376854829180202_504674149731602
502780413387424_557302884601843
1645234332364979_1770930093128735
1645234332364979_1675046876050391
502780413387424_532018897130242
1645234332364979_1836115079943569
704989366257912_1488243607932480
1645234332364979_1897185920503151
502780413387424_507328596265939
502780413387424_536007663398032
502780413387424_560057907659674
502780413387424_514065038925628
502780413387424_556459744686157
1645234332364979_1712347308987014
502780413387424_545297282469070
502780413387424_504652733200192
704989366257912_1511843315572509
502780413387424_532386127093519
1645234332364979_1675046876050391
502780413387424_506052546393544
502780413387424_519134378418694
502780413387424_532779863720812
502780413387424_534334360232029
704989366257912_1078845265538985
502780413387424_530647133934085
704989366257912_1589953581094815
502780413387424_504660123199453
1645234332364979_1841166679438409
502780413387424_504660709866061
1645234332364979_1837878883100522
502780413387424_523061004692698
502780413387424_555414808123984
1645234332364979_1960039614217781
502780413387424_552004415131690
502780413387424_551554461843352
502780413387424_555913164740815
1645234332364979_1996700713885004
502780413387424_552136558451809
502780413387424_521649331500532
502780413387424_534800116852120
704989366257912_1544092435680930
1645234332364979_1976627112559031
502780413387424_561219000876898
1645234332364979_1837504099804667
376854829180202_456642537868097
704989366257912_1500941793329328
502780413387424_528029047529227
1645234332364979_1837453179809759
704989366257912_1504582762965231
502780413387424_540905752908223
502780413387424_504653939866738
502780413387424_502944213371044
502780413387424_532029997129132
704989366257912_1549476841809156
704989366257912_1545822915507882
376854829180202_379073335625018
1645234332364979_1966335863588156
502780413387424_527614620904003
704989366257912_1502521383171369
1645234332364979_1976396882582054
1645234332364979_1925998234288586
1645234332364979_1900861270135616
502780413387424_559674477698017
1645234332364979_1955736431314766
1645234332364979_1945053955716347
502780413387424_532018897130242
704989366257912_1511226825634158
502780413387424_527928214205977
704989366257912_1509367862486721
1645234332364979_1865397210348689
1645234332364979_1659418014279944
502780413387424_544311002567698
502780413387424_541321312866667
502780413387424_528268067505325
502780413387424_521649331500532
376854829180202_469790563219961
704989366257912_1452174668206041
704989366257912_1468915329865308
502780413387424_530780937254038
704989366257912_1549476841809156
704989366257912_1497643893659118
704989366257912_1510412462382261
1645234332364979_1841767729378304
704989366257912_1555234034566770
704989366257912_1509960582427449
502780413387424_561219000876898
704989366257912_1452174668206041
502780413387424_526473267684805
502780413387424_557375674594564
1645234332364979_1912009715687438
502780413387424_552004415131690
502780413387424_525730787759053
704989366257912_1535680056522168
502780413387424_551653268500138
502780413387424_534334360232029
502780413387424_521649331500532
502780413387424_557302884601843
704989366257912_1509280345828806
502780413387424_519842525014546
502780413387424_502798193385646
502780413387424_526747987657333
502780413387424_529446527387479
1645234332364979_1876211355933941
502780413387424_556459744686157
502780413387424_527614620904003
502780413387424_530357190629746
704989366257912_1591327910957382
704989366257912_1497646050325569
1645234332364979_1941632949391781
1645234332364979_1978876342334108
502780413387424_517737088558423
704989366257912_1078845265538985
1645234332364979_1878493852372358
704989366257912_1525463377543836
502780413387424_550356225296509
704989366257912_1591186947638145
704989366257912_1534729693283871
1645234332364979_1993533784201697
502780413387424_523106741354791
704989366257912_1552334564856717
502780413387424_529583914040407
502780413387424_503442089987923
502780413387424_551275321871266
704989366257912_1473864319370409
704989366257912_1492016100888564
502780413387424_513665742298891
1645234332364979_1775408879347523
704989366257912_1568106819946158
502780413387424_562875447377920
376854829180202_740411829491165
502780413387424_518723608459771
502780413387424_539073639758101
1645234332364979_1990661207822288
502780413387424_546542919011173
376854829180202_379076162291402
1645234332364979_1914061318815611
1645234332364979_1958902740998135
502780413387424_505622566436542
704989366257912_1523814561042051
1645234332364979_1838293729725704
704989366257912_1521639651259542
1645234332364979_1960383430850066
502780413387424_559690421029756
1645234332364979_1914604525427957
1645234332364979_1827608874127523
502780413387424_537551513243647
502780413387424_502783126720486
502780413387424_534344206897711
502780413387424_547937472205051
376854829180202_692440547621627
704989366257912_1422833034473538
1645234332364979_1687997218088690
502780413387424_519134378418694
704989366257912_1511643118925862
1645234332364979_1848753278679749
704989366257912_1467333360023505
376854829180202_677139212485094
1645234332364979_1901984380023305
502780413387424_526473267684805
376854829180202_380169378848747
376854829180202_388979367967748
502780413387424_504659246532874
376854829180202_705001556365526
1645234332364979_1712347308987014
502780413387424_530357190629746
704989366257912_1481658161924358
704989366257912_1513597802063727
502780413387424_560538737611591
502780413387424_561737150825083
1645234332364979_1990666081155134
502780413387424_523061004692698
502780413387424_502940590038073
704989366257912_1557097247713782
704989366257912_1468356596587848
502780413387424_502816846717114
502780413387424_559371374394994
1645234332364979_1897422147146195
704989366257912_1549476841809156
1645234332364979_1955736431314766
502780413387424_541321312866667
1645234332364979_1770567893164955
1645234332364979_1949003311988078
704989366257912_1537194619704045
502780413387424_553385328326932
704989366257912_1500188163404691
502780413387424_558333887832076
376854829180202_548780155321001
502780413387424_547873675544764
704989366257912_1534754953281345
376854829180202_626456260886723
502780413387424_534344206897711
502780413387424_528953887436743
502780413387424_532430877089044
502780413387424_544311002567698
376854829180202_379074172291601
502780413387424_550356225296509
502780413387424_541321312866667
704989366257912_1535792326510941
502780413387424_526747987657333
502780413387424_562812550717543
502780413387424_511774205821378
502780413387424_547032475628884
502780413387424_537792859886179
704989366257912_1360020467421462
502780413387424_534344206897711
502780413387424_535189750146490
502780413387424_556456844686447
1645234332364979_1980515528836856
502780413387424_508301292835336
704989366257912_1557697984320375
502780413387424_532870370378428
502780413387424_537792859886179
704989366257912_1549476841809156
376854829180202_379073705624981
704989366257912_1527935897296584
704989366257912_1519530651470442
502780413387424_511774205821378
704989366257912_1518792634877577
502780413387424_540131496318982
704989366257912_1500232540066920
502780413387424_561219000876898
704989366257912_1591327910957382
502780413387424_555913164740815
1645234332364979_1885016108386799
502780413387424_527522770913188
704989366257912_1523841087706065
704989366257912_1536954343061406
376854829180202_481410132058004
502780413387424_502821633383302
376854829180202_715089002023448
502780413387424_560878814244250
502780413387424_502952443370221
1645234332364979_1858372871051123
1645234332364979_1646884775533268
1645234332364979_1876217862599957
704989366257912_1525524057537768
1645234332364979_1673773476177731
502780413387424_557310227934442
502780413387424_557622974569834
704989366257912_1511118375645003
704989366257912_1575822589174581
502780413387424_502836560048476
1645234332364979_1912584425629967
502780413387424_503016296697169
502780413387424_525345641130901
1645234332364979_1865397210348689
502780413387424_555913164740815
376854829180202_703275799871435
704989366257912_1497643893659118
704989366257912_1549476841809156
1645234332364979_1841103992778011
704989366257912_1510412462382261
502780413387424_561737150825083
1645234332364979_1993731224181953
502780413387424_503373476661451
704989366257912_1470239136399594
502780413387424_534334360232029
1645234332364979_1903109846577425
502780413387424_530357190629746
502780413387424_542727509392714
502780413387424_532870370378428
502780413387424_531078530557612
376854829180202_568714783327538
704989366257912_1534729053283935
502780413387424_530357190629746
502780413387424_558589921139806
376854829180202_608574856008197
502780413387424_546945732304225
1645234332364979_1766229926932085
502780413387424_533823963616402
502780413387424_558759684456163
704989366257912_1524180327672141
704989366257912_1469108426512665
502780413387424_546945732304225
502780413387424_504652733200192
502780413387424_515610908771041
376854829180202_683200451878970
704989366257912_1511228572300650
502780413387424_552934661705332
1645234332364979_1945753242313085
1645234332364979_1955823247972751
502780413387424_513665742298891
704989366257912_1511232858966888
1645234332364979_1836816466540097
502780413387424_532055913793207
704989366257912_1431536236936551
1645234332364979_1862664760621934
502780413387424_503437946655004
1645234332364979_1906382179583525
502780413387424_541321312866667
502780413387424_555913164740815
502780413387424_551554461843352
502780413387424_556848307980634
502780413387424_546542922344506
502780413387424_521649331500532
502780413387424_553385328326932
502780413387424_558759684456163
376854829180202_714590528739962
502780413387424_529395237392608
502780413387424_553385328326932
1645234332364979_1996700713885004
1645234332364979_1770520063169738
1645234332364979_1899570516931358
1645234332364979_1980515528836856
502780413387424_502783490053783
376854829180202_380129448852740
1645234332364979_1863904917164585
502780413387424_540126502986148
1645234332364979_1886251521596591
502780413387424_537792859886179
376854829180202_728512724014409
502780413387424_546824665649665
502780413387424_555545418110923
502780413387424_536486680016797
1645234332364979_1893270400894703
1645234332364979_1912018712353205
502780413387424_546454125686719
502780413387424_523529844645814
502780413387424_559371374394994
1645234332364979_1912010979020645
502780413387424_551275321871266
704989366257912_1510412462382261
704989366257912_1530959016994272
502780413387424_504659596532839
376854829180202_464702057062145
1645234332364979_1826236100931467
502780413387424_530364957295636
502780413387424_547140142284784
1645234332364979_1956010707954005
502780413387424_502835943381871
502780413387424_504652733200192
502780413387424_527522770913188
502780413387424_550447641954034
502780413387424_528984487433683
1645234332364979_1911396035748806
502780413387424_526892777642854
502780413387424_552088078456657
704989366257912_1518821571541350
704989366257912_1555234034566770
502780413387424_559371374394994
502780413387424_544311002567698
502780413387424_513562118975920
502780413387424_546542919011173
1645234332364979_1981073965447679
704989366257912_1549476841809156
502780413387424_519829505015848
502780413387424_541321312866667
1645234332364979_1890855337802876
704989366257912_1510774445679396
502780413387424_556847334647398
502780413387424_527614620904003
502780413387424_506052546393544
1645234332364979_1945372902351119
376854829180202_568716499994033
502780413387424_524125314586267
502780413387424_536867229978742
502780413387424_543932189272246
1645234332364979_1703383149883430
502780413387424_529583914040407
704989366257912_1520725428017631
502780413387424_515309162134549
704989366257912_1537697056320468
1645234332364979_1904788823076194
1645234332364979_1699374183617660
502780413387424_527167160948749
502780413387424_533499820315483
502780413387424_543059599359505
502780413387424_554708588194606
704989366257912_1591327910957382
502780413387424_547937472205051
1645234332364979_1854319958123081
502780413387424_551351261863672
1645234332364979_1930811813807228
376854829180202_749239391941742
502780413387424_523514154647383
1645234332364979_1841838692704541
502780413387424_557337524598379
1645234332364979_1990039101217832
704989366257912_1509280345828806
1645234332364979_1836829996538744
704989366257912_1422833034473538
376854829180202_677139212485094
502780413387424_547140142284784
502780413387424_547032475628884
704989366257912_1497646050325569
704989366257912_1535650696525104
1645234332364979_1830581357163608
1645234332364979_1850720951816315
502780413387424_532029997129132
704989366257912_1521083951315112
502780413387424_502946160037516
502780413387424_505594686439330
502780413387424_522801034718695
502780413387424_558811391117659
502780413387424_530364957295636
502780413387424_537792859886179
502780413387424_528016034197195
502780413387424_544003425931789
376854829180202_608581126007570
1645234332364979_1913884552166621
1645234332364979_1849568961931514
704989366257912_1545822915507882
502780413387424_513478952317570
502780413387424_502946380037494
502780413387424_506529786345820
1645234332364979_1959993197555756
502780413387424_552004415131690
704989366257912_1467333360023505
1645234332364979_1914566348765108
1645234332364979_1695654477322964
502780413387424_528953887436743
1645234332364979_1900861270135616
376854829180202_380134345518917
502780413387424_537202643278534
502780413387424_527614620904003
502780413387424_523549644643834
1645234332364979_1886251521596591
704989366257912_1521853764571464
502780413387424_556456844686447
1645234332364979_1837453179809759
502780413387424_543932189272246
502780413387424_502832460048886
502780413387424_550826065249525
502780413387424_517988741866591
502780413387424_524125314586267
1645234332364979_1960039614217781
502780413387424_540129639652501
502780413387424_515197735479025
502780413387424_530780937254038
502780413387424_552934661705332
502780413387424_542502942748504
502780413387424_532735100391955
1645234332364979_1670416899846722
502780413387424_530379360627529
704989366257912_1549476841809156
1645234332364979_1837305653157845
502780413387424_514421482223317
376854829180202_380134345518917
502780413387424_542290776103054
704989366257912_1537927199630787
502780413387424_537792859886179
704989366257912_1360020467421462
502780413387424_541767342822064
502780413387424_562857747379690
502780413387424_563286480670150
1645234332364979_1885016108386799
704989366257912_1431536236936551
502780413387424_548637258801739
502780413387424_531641210501344
502780413387424_556922677973197
704989366257912_1360020467421462
1645234332364979_1892755710946172
502780413387424_504652733200192
1645234332364979_1980515528836856
502780413387424_502986000033532
502780413387424_560327427632722
1645234332364979_1837156866506057
502780413387424_533823963616402
502780413387424_503016296697169
502780413387424_541767342822064
502780413387424_551275321871266
704989366257912_1510299845726856
704989366257912_1516396715117169
502780413387424_504659896532809
502780413387424_504657126533086
502780413387424_502796276719171
704989366257912_1525214847568689
704989366257912_1573653496058157
704989366257912_1511605758929598
502780413387424_560328734299258
502780413387424_557310227934442
502780413387424_504644616534337
1645234332364979_1843794212508989
376854829180202_715444068654608
1645234332364979_1670416899846722
704989366257912_1452174668206041
502780413387424_526747987657333
502780413387424_554708588194606
376854829180202_380600265472325
1645234332364979_1665764810311931
1645234332364979_1672950926259986
1645234332364979_1980515528836856
502780413387424_537551513243647
502780413387424_532018897130242
502780413387424_544867295845402
376854829180202_379075325624819
502780413387424_525730787759053
1645234332364979_1991218981099844
704989366257912_1557697984320375
502780413387424_526473267684805
704989366257912_1588767457880094
502780413387424_562450414087090
704989366257912_1511643118925862
502780413387424_561922407473224
704989366257912_1494685327288308
502780413387424_543986242600174
502780413387424_562450414087090
1645234332364979_1840123672876043
502780413387424_523081054690693
502780413387424_532029997129132
502780413387424_562450414087090
1645234332364979_1703383149883430
704989366257912_1549476841809156
704989366257912_1568104429946397
502780413387424_526747987657333
502780413387424_530379360627529
1645234332364979_1840322552856155
502780413387424_562481087417356
704989366257912_1538131856276988
502780413387424_510022882663177
1645234332364979_1976627112559031
1645234332364979_1927957204092689
1645234332364979_1955760691312340
1645234332364979_1968669053354837
502780413387424_537792859886179
704989366257912_1297947256962117
502780413387424_557375874594544
502780413387424_559690421029756
502780413387424_542725332726265
1645234332364979_1844341149120962
1645234332364979_1981605825394493
1645234332364979_1802639089957835
1645234332364979_1917085625179847
502780413387424_502836560048476
502780413387424_506874872977978
1645234332364979_1968245030063906
502780413387424_537792859886179
502780413387424_540662982932500
502780413387424_504661029866029
502780413387424_503436679988464
376854829180202_573238716208478
502780413387424_547937472205051
376854829180202_381568912042127
502780413387424_557375674594564
502780413387424_515634292102036
1645234332364979_1843813695840374
1645234332364979_1914600978761645
502780413387424_560538737611591
502780413387424_512874129044719
704989366257912_1452174668206041
502780413387424_502830953382370
1645234332364979_1675046876050391
502780413387424_502949930037139
502780413387424_548637258801739
502780413387424_537202643278534
502780413387424_555961418069323
1645234332364979_1893584450863298
502780413387424_557417701257028
1645234332364979_1888146268073783
1645234332364979_1826236100931467
502780413387424_502840126714786
502780413387424_547937472205051
704989366257912_1537766309646876
704989366257912_1493738237383017
1645234332364979_1699150200306725
704989366257912_1474023049354536
502780413387424_505489919783140
376854829180202_382039808661704
1645234332364979_1747957735425971
502780413387424_533073077024824
1645234332364979_1944603129094763
704989366257912_1537626666327507
502780413387424_555913164740815
1645234332364979_1917644948457248
502780413387424_563334413998690
1645234332364979_1893312267557183
502780413387424_528375550827910
502780413387424_537792859886179
1645234332364979_1848584908696586
502780413387424_553385328326932
502780413387424_560576670941131
502780413387424_502796276719171
704989366257912_1528165363940304
502780413387424_523029151362550
1645234332364979_1910895372465539
704989366257912_1504582762965231
376854829180202_659068420958840
704989366257912_1511230338967140
502780413387424_557310227934442
1645234332364979_1980515528836856
502780413387424_553385328326932
704989366257912_1502521383171369
502780413387424_543932189272246
1645234332364979_1687997218088690
1645234332364979_1837879413100469
704989366257912_1469108426512665
1645234332364979_1961573080731101
502780413387424_559524314379700
502780413387424_530357190629746
502780413387424_511360809196051
1645234332364979_1910344325853977
502780413387424_534344206897711
704989366257912_1472242522865922
704989366257912_1520734854683355
704989366257912_1517410171682490
502780413387424_519842525014546
502780413387424_558811391117659
502780413387424_538847179780747
1645234332364979_1784723965082681
502780413387424_505594686439330
502780413387424_533199543678844
502780413387424_561219000876898
704989366257912_1500188163404691
704989366257912_1360020467421462
502780413387424_515197312145734
502780413387424_511272482538217
1645234332364979_1672950926259986
502780413387424_555093261489472
502780413387424_503321729999959
502780413387424_524858297846302
502780413387424_541321312866667
704989366257912_1511633768926797
1645234332364979_1888146268073783
502780413387424_547937472205051
502780413387424_541321312866667
704989366257912_1431536236936551
502780413387424_547140142284784
376854829180202_548781765320840
502780413387424_512497969082335
502780413387424_558811391117659
502780413387424_562450414087090
704989366257912_1565233026900204
502780413387424_506425926356206
502780413387424_523061004692698
502780413387424_504652283200237
502780413387424_527522770913188
502780413387424_558333887832076
1645234332364979_1708246399397105
704989366257912_1549476841809156
502780413387424_537792859886179
376854829180202_752162731649408
502780413387424_561737150825083
1645234332364979_1940183079536768
704989366257912_1500941793329328
502780413387424_553728291625969
1645234332364979_1917497138472029
502780413387424_529446527387479
1645234332364979_1980515528836856
502780413387424_502798510052281
704989366257912_1511226825634158
704989366257912_1537689382987902
502780413387424_531641210501344
502780413387424_545271129138352
502780413387424_544606755871456
704989366257912_1532883053468535
502780413387424_530364957295636
502780413387424_552934661705332
502780413387424_523112721354193
502780413387424_526892777642854
704989366257912_1545822915507882
502780413387424_562951360703662
502780413387424_536634896668642
704989366257912_1497646050325569
502780413387424_512524892412976
1645234332364979_1828168260738251
376854829180202_587095611489455
1645234332364979_1675046876050391
502780413387424_527614620904003
502780413387424_502822453383220
502780413387424_556456844686447
502780413387424_559371374394994
502780413387424_553385328326932
1645234332364979_1906335719588171
704989366257912_1360020467421462
502780413387424_544003425931789
502780413387424_532919160373549
502780413387424_503016296697169
1645234332364979_1784723965082681
704989366257912_1422833034473538
1645234332364979_1980515528836856
1645234332364979_1783647848523626
502780413387424_537792859886179
502780413387424_533656933633105
502780413387424_526892777642854
